…
``` r
aisle_df = instacart %>% 
  group_by(aisle,aisle_id) %>% 
  summarize(n_obs = n()) %>% 
  arrange(desc(n_obs))
```

    ## `summarise()` has grouped output by 'aisle'. You can override using the `.groups` argument.

``` r
aisle_df
```

    ## # A tibble: 134 × 3
    ## # Groups:   aisle [134]
    ##    aisle                         aisle_id  n_obs
    ##    <chr>                            <int>  <int>
    ##  1 fresh vegetables                    83 150609
    ##  2 fresh fruits                        24 150473
    ##  3 packaged vegetables fruits         123  78493
    ##  4 yogurt                             120  55240
    ##  5 packaged cheese                     21  41699
    ##  6 water seltzer sparkling water      115  36617
    ##  7 milk                                84  32644
    ##  8 chips pretzels                     107  31269
    ##  9 soy lactosefree                     91  26240
    ## 10 bread                              112  23635
    ## # … with 124 more rows
…
